{
  "development": {
    "username": "tunguyene",
    "password": "admin$123",
    "database": "manulife",
    "host": "127.0.0.1",
    "port": 5433,
    "dialect": "postgres",
    "timezone": "+07:00"
  },
  "dev": {
    "username": "tunguyene",
    "password": "admin$123",
    "database": "manulife",
    "host": "127.0.0.1",
    "port": 5433,
    "dialect": "postgres",
    "timezone": "+07:00"
  },
  "aws": {
    "username": "manulife",
    "password": "manulifePsql",
    "database": "manulife",
    "host": "ec2-13-250-56-100.ap-southeast-1.compute.amazonaws.com",
    "port": 5432,
    "dialect": "postgres",
    "timezone": "+07:00"
  },
  "test": {
    "username": "postgres",
    "password": "admin$123",
    "database": "migrate_manulife",
    "host": "127.0.0.1",
    "port": 5432,
    "dialect": "postgres",
    "logging": true,
    "force": true,
    "timezone": "+00:00"
  },
  "production": {
    "username": "postgres",
    "password": "admin$123",
    "database": "migrate_manulife",
    "host": "127.0.0.1",
    "port": 5432,
    "dialect": "postgres",
    "logging": true,
    "force": true,
    "timezone": "+00:00"
  }
}