{
    "database": {
        "connectionString": "mongodb://192.168.0.105:27017/manulife"
    },
    "server": {
        "port": 5000,
        "jwtSecret": "random-secret-password",
        "jwtExpiration": "1h",
        "routePrefix": "/api",
        "plugins": [
            "logger",
            "jwt-auth",
            "swagger"
        ]
    },
    "redis": {
        "url": "//redis:manulife@192.168.0.105:6379"
    }
}